<svg width="229" height="100" viewBox="0 0 229 100" fill="none" xmlns="http://www.w3.org/2000/svg">
<path fill-rule="evenodd" clip-rule="evenodd" d="M74 55C78.4183 55 82 51.4183 82 47C82 42.5817 78.4183 39 74 39C69.5817 39 66 42.5817 66 47C66 51.4183 69.5817 55 74 55Z" stroke="#1742D0" stroke-width="2"/>
<path fill-rule="evenodd" clip-rule="evenodd" d="M82.5 99C85.5376 99 88 96.5376 88 93.5C88 90.4624 85.5376 88 82.5 88C79.4624 88 77 90.4624 77 93.5C77 96.5376 79.4624 99 82.5 99Z" stroke="#1742D0"/>
<path fill-rule="evenodd" clip-rule="evenodd" d="M182.5 80C185.538 80 188 77.5376 188 74.5C188 71.4624 185.538 69 182.5 69C179.462 69 177 71.4624 177 74.5C177 77.5376 179.462 80 182.5 80Z" stroke="#1742D0"/>
<path fill-rule="evenodd" clip-rule="evenodd" d="M210.5 36C212.433 36 214 34.433 214 32.5C214 30.567 212.433 29 210.5 29C208.567 29 207 30.567 207 32.5C207 34.433 208.567 36 210.5 36Z" stroke="#1742D0" stroke-width="2"/>
<path fill-rule="evenodd" clip-rule="evenodd" d="M158 95C161.866 95 165 91.866 165 88C165 84.134 161.866 81 158 81C154.134 81 151 84.134 151 88C151 91.866 154.134 95 158 95Z" stroke="#EC008C" stroke-width="2"/>
<path fill-rule="evenodd" clip-rule="evenodd" d="M169 53C170.105 53 171 52.1046 171 51C171 49.8954 170.105 49 169 49C167.895 49 167 49.8954 167 51C167 52.1046 167.895 53 169 53Z" stroke="#1742D0"/>
<path fill-rule="evenodd" clip-rule="evenodd" d="M40 75C41.6569 75 43 73.6569 43 72C43 70.3431 41.6569 69 40 69C38.3431 69 37 70.3431 37 72C37 73.6569 38.3431 75 40 75Z" stroke="#EC008C" stroke-width="2"/>
<path d="M1.5 61.5L17.3114 45.6886" stroke="#EC008C" stroke-linecap="square"/>
<path d="M216.5 75.5L227.68 64.3197" stroke="#FFD400" stroke-linecap="square"/>
<path d="M53.5 92.5L59.0227 86.9773" stroke="#979797" stroke-linecap="square"/>
<path d="M98.5 15.5L112.642 1.35791" stroke="#C5C5C5" stroke-linecap="square"/>
<path d="M106.552 45.1976L106.423 45.379C105.608 46.531 104.962 47.7944 104.507 49.1303L104.253 49.8736C104.149 50.1795 104.072 50.4939 104.021 50.8131L103.767 52.4288C103.364 54.9893 105.343 57.3043 107.935 57.3043C109.851 57.3043 111.501 55.957 111.885 54.0808L112.191 52.5865C112.278 52.1582 112.413 51.7409 112.593 51.3424L112.702 51.1005C113.827 48.6072 116.111 46.8303 118.804 46.3528L118.999 46.3182C120.023 46.1367 121.072 46.15 122.09 46.3574L122.659 46.4731C124.662 46.8811 126.388 48.1446 127.382 49.9318C128.108 51.2376 128.398 52.7415 128.208 54.2237L128.15 54.6817C127.808 57.359 126.202 59.7093 123.831 61.0006L122.742 61.5942L120.003 63.5072C119.272 64.0176 118.603 64.6108 118.009 65.275L117.568 65.768C115.956 67.5693 115.065 69.9016 115.065 72.3188C115.065 73.7996 116.265 75 117.746 75H121.158C122.638 75 123.839 73.7996 123.839 72.3188C123.839 70.6579 124.719 69.1214 126.151 68.2809L126.581 68.029L129.8 65.8257C131.298 64.8003 132.602 63.5169 133.65 62.0353L133.867 61.7299C135.886 58.8782 136.794 55.3871 136.42 51.913C136.085 48.8007 134.74 45.8837 132.591 43.6075L132.361 43.3632C130.376 41.2606 127.837 39.7621 125.037 39.0407L124.5 38.9024L122.737 38.5872C120.569 38.1997 118.332 38.2575 116.186 38.7513C112.301 39.6453 108.856 41.9434 106.552 45.1976Z" fill="url(#paint0_linear)"/>
<path d="M122.579 80.1667H116.526C115.974 80.1667 115.526 80.6144 115.526 81.1667V87C115.526 87.5523 115.974 88 116.526 88H122.579C123.131 88 123.579 87.5523 123.579 87V81.1667C123.579 80.6144 123.131 80.1667 122.579 80.1667Z" fill="url(#paint1_linear)"/>
<defs>
<linearGradient id="paint0_linear" x1="120" y1="38" x2="120" y2="157.043" gradientUnits="userSpaceOnUse">
<stop stop-color="#1742D0"/>
<stop offset="1" stop-color="#EE3383"/>
</linearGradient>
<linearGradient id="paint1_linear" x1="119.553" y1="68.4167" x2="119.553" y2="113.85" gradientUnits="userSpaceOnUse">
<stop stop-color="#1742D0"/>
<stop offset="1" stop-color="#EC008C"/>
</linearGradient>
</defs>
</svg>
