<svg width="16" height="20" viewBox="0 0 16 20" fill="none" xmlns="http://www.w3.org/2000/svg">
<path d="M15.0531 7.78333C15.0531 13.3333 8.26139 19.5 8.26139 19.5C8.26139 19.5 1.46973 13.3333 1.46973 7.78333C1.46973 5.98428 2.18528 4.25891 3.45896 2.98679C4.73264 1.71467 6.46013 1 8.26139 1C10.0627 1 11.7901 1.71467 13.0638 2.98679C14.3375 4.25891 15.0531 5.98428 15.0531 7.78333V7.78333Z" stroke="#1742D0" stroke-linecap="round" stroke-linejoin="round"/>
<path d="M8.26144 10.8667C9.96641 10.8667 11.3486 9.48622 11.3486 7.78335C11.3486 6.08047 9.96641 4.70001 8.26144 4.70001C6.55647 4.70001 5.17432 6.08047 5.17432 7.78335C5.17432 9.48622 6.55647 10.8667 8.26144 10.8667Z" stroke="#1742D0" stroke-linecap="round" stroke-linejoin="round"/>
</svg>
