<svg width="24" height="24" viewBox="0 0 24 24" fill="none" xmlns="http://www.w3.org/2000/svg">
<mask id="mask0" mask-type="alpha" maskUnits="userSpaceOnUse" x="6" y="6" width="12" height="13">
<path d="M6 7.2H10.8C10.8 6.88174 10.9264 6.57652 11.1515 6.35147C11.3765 6.12643 11.6817 6 12 6C12.3183 6 12.6235 6.12643 12.8485 6.35147C13.0736 6.57652 13.2 6.88174 13.2 7.2H18V8.4H17.4V15H13.95L15 18.6H13.8L12.75 15H11.25L10.2 18.6H9L10.05 15H6.6V8.4H6V7.2ZM7.8 8.4V13.8H16.2V8.4H7.8Z" fill="#1742D0"/>
</mask>
<g mask="url(#mask0)">
<rect width="24" height="24" fill="#1742D0"/>
</g>
</svg>
