<svg width="299" height="163" viewBox="0 0 299 163" fill="none" xmlns="http://www.w3.org/2000/svg">
<g clip-path="url(#clip0)">
<path opacity="0.1" d="M87.0817 79.6126C80.0321 82.8696 73.5324 87.3436 66.1835 89.8497C57.2398 92.8995 47.5823 92.8679 38.1321 92.7988L0 92.5313C7.72313 106.397 21.3674 116.835 36.7734 120.665C42.8183 122.169 49.2749 122.759 54.606 125.99C61.2496 130.019 65.1875 137.591 71.9406 141.427C79.3845 145.65 88.6361 144.511 96.9321 146.606C107.747 149.319 116.794 157.479 127.825 159.084C138.492 160.635 148.893 155.818 159.232 152.777C196.164 141.913 236.064 153.517 274.184 148.145C275.649 147.938 277.209 147.659 278.269 146.629C279.63 145.308 279.743 143.176 279.472 141.286C278.113 131.866 269.636 124.943 260.747 121.528C241.809 114.254 220.534 118.823 200.416 116.205C186.599 114.404 173.455 109.219 160.49 104.078C146.915 98.6942 133.127 93.4117 120.263 86.446C107.185 79.3536 102.945 72.2929 87.0817 79.6126Z" fill="#1742D0"/>
<path d="M206.455 129.619C206.455 129.619 207.03 138.25 205.879 139.689C205.879 139.689 231.21 144.292 234.377 142.854C237.543 141.415 236.104 139.113 234.377 138.25C232.65 137.387 224.014 134.222 222.862 128.18C222.862 128.18 226.605 126.454 214.515 128.755C202.425 131.057 206.455 129.619 206.455 129.619Z" fill="#DC9BA3"/>
<path opacity="0.05" d="M206.455 129.619C206.455 129.619 207.03 138.25 205.879 139.689C205.879 139.689 231.21 144.292 234.377 142.854C237.543 141.415 236.104 139.113 234.377 138.25C232.65 137.387 224.014 134.222 222.862 128.18C222.862 128.18 226.605 126.454 214.515 128.755C202.425 131.057 206.455 129.619 206.455 129.619Z" fill="black"/>
<path d="M107.666 9.42004L107.557 9.47184C102.331 11.9354 97.7862 15.636 94.3155 20.2528C92.3523 22.8423 89.9401 25.3109 87.6459 25.7195C82.5509 26.6172 45.0867 65.5632 54.0792 101.81C63.0718 138.057 115.533 139.554 115.533 139.554C115.533 139.554 126.69 141.444 133.092 145.225C134.587 146.108 136.258 146.652 137.987 146.818C139.715 146.984 141.459 146.768 143.095 146.186C150.718 143.475 163.245 139.545 168.893 140.753C177.284 142.552 249.204 112.594 249.204 112.594C249.204 112.594 219.233 83.822 175.177 84.4348C175.177 84.4348 105.645 35.9048 108.043 15.8334L107.666 9.42004Z" fill="#1742D0"/>
<path opacity="0.1" d="M107.666 9.42004L107.557 9.47184C102.331 11.9354 97.7862 15.636 94.3155 20.2528C92.3523 22.8423 89.9401 25.3109 87.6459 25.7195C82.5509 26.6172 45.0867 65.5632 54.0792 101.81C63.0718 138.057 115.533 139.554 115.533 139.554C115.533 139.554 126.69 141.444 133.092 145.225C134.587 146.108 136.258 146.652 137.987 146.818C139.715 146.984 141.459 146.768 143.095 146.186C150.718 143.475 163.245 139.545 168.893 140.753C177.284 142.552 249.204 112.594 249.204 112.594C249.204 112.594 219.233 83.822 175.177 84.4348C175.177 84.4348 105.645 35.9048 108.043 15.8334L107.666 9.42004Z" fill="black"/>
<path d="M107.721 9.35095L100.524 16.2563C100.524 16.2563 95.0551 26.902 90.1616 27.7651C85.2681 28.6283 49.2863 66.0321 57.9219 100.846C66.5576 135.661 116.932 137.099 116.932 137.099C116.932 137.099 127.416 138.875 133.584 142.428C135.08 143.303 136.748 143.844 138.473 144.012C140.198 144.18 141.939 143.973 143.576 143.403C150.913 140.814 162.799 137.099 168.167 138.25C176.227 139.977 245.312 111.204 245.312 111.204C245.312 111.204 216.527 83.5831 174.212 84.1585C174.212 84.1585 107.43 37.5477 109.733 18.2703L107.721 9.35095Z" fill="#1742D0"/>
<path opacity="0.1" d="M155.874 119.782C164.739 110.921 158.843 90.6613 142.705 74.5305C126.567 58.3998 106.298 52.5064 97.4327 61.3673C88.5677 70.2282 94.4638 90.4879 110.602 106.619C126.74 122.749 147.009 128.643 155.874 119.782Z" fill="black"/>
<path d="M107.721 45.8916C107.721 45.8916 110.887 51.0706 108.872 61.1408C106.857 71.2111 114.054 71.2111 114.054 71.2111H128.446L133.34 58.5513L126.431 59.1268C126.431 59.1268 121.826 57.9759 123.841 47.3302L107.721 45.8916Z" fill="#FFD2D9"/>
<path d="M150.899 33.8072C148.697 40.8133 145.936 49.3442 144.463 53.896L143.415 57.1127L133.916 47.3302C133.916 47.3302 134.333 46.3605 134.958 45.0025C136.348 41.9929 138.769 37.0815 139.961 36.6845C139.961 36.6845 126.719 35.8213 122.689 38.9862C118.659 42.1512 119.811 30.3546 119.811 30.3546C119.811 30.3546 127.583 29.7791 130.461 28.0528C133.34 26.3265 148.884 24.6002 148.884 24.6002C148.884 24.6002 154.065 23.737 150.899 33.8072Z" fill="#FFD2D9"/>
<path opacity="0.1" d="M98.7974 120.699C98.7974 120.699 123.265 109.478 131.901 111.204L98.7974 120.699Z" fill="black"/>
<path opacity="0.1" d="M73.754 94.2287C73.754 94.2287 103.403 93.0778 119.523 103.436L73.754 94.2287Z" fill="black"/>
<path opacity="0.1" d="M88.4346 106.025C88.4346 106.025 111.751 100.271 124.129 102.285L88.4346 106.025Z" fill="black"/>
<path d="M237.255 118.397L235.24 133.071L230.059 132.496C230.059 132.496 229.745 132.208 229.213 131.725C227.816 130.496 224.912 128.088 222.131 126.776C221.191 126.296 220.17 125.992 219.12 125.878L224.877 117.247C226.278 117.771 227.714 118.196 229.175 118.518C230.693 118.874 232.245 119.057 233.804 119.065C234.988 119.087 236.164 118.859 237.255 118.397Z" fill="#FFD2D9"/>
<path d="M222.863 128.755C220.272 131.057 208.47 126.166 206.455 133.647L204.601 126.551L198.893 104.716L198.107 101.71L193.352 101.505L138.78 99.1776L135.683 99.051L134.054 98.982L136.215 97.9116L150.608 90.7819C150.608 90.7819 155.79 90.4194 162.943 89.4382C173.783 87.9536 189.138 85.0505 197.808 79.8513C212.2 71.2197 217.67 100.28 217.67 100.28C217.67 100.28 219.857 107.654 221.527 114.919C222.321 118.372 222.998 121.824 223.254 124.431C223.499 126.643 223.424 128.258 222.863 128.755Z" fill="#E9E9EF"/>
<path opacity="0.05" d="M222.863 128.755C220.272 131.057 208.47 126.166 206.455 133.647L204.601 126.551L198.893 104.716L198.107 101.71L193.214 101.422L140.479 98.1677L137.223 97.9663L136.221 97.9059L134.923 97.8253L150.611 90.7761C150.611 90.7761 155.793 90.4136 162.946 89.4325C173.786 87.9478 189.14 85.0447 197.811 79.8456C212.203 71.214 217.673 100.274 217.673 100.274C217.673 100.274 219.86 107.648 221.53 114.913C222.324 118.366 223.001 121.818 223.257 124.425C223.499 126.643 223.424 128.258 222.863 128.755Z" fill="black"/>
<path opacity="0.1" d="M229.175 118.518L224.138 124.422L222.123 126.776C221.182 126.296 220.162 125.992 219.112 125.878L224.869 117.247C226.273 117.771 227.712 118.196 229.175 118.518Z" fill="black"/>
<path d="M228.907 117.822L223.274 124.422L220.56 127.605V128.468C217.238 129.233 206.884 127.052 204.601 126.551C204.313 126.491 204.152 126.454 204.152 126.454C197.531 126.741 173.064 112.355 173.064 112.355C173.064 112.355 146.293 116.959 133.34 115.808C126.106 115.163 124.08 112.548 123.7 110.361C123.532 109.281 123.681 108.174 124.128 107.176L135.683 99.051L137.217 97.9721L139.667 96.2458C139.667 96.2458 143.924 95.2819 149.333 94.0878C157.781 92.2263 169.042 89.8066 171.322 89.631C175.064 89.3433 184.563 92.5083 190.033 98.8381C190.974 99.8318 192.038 100.702 193.199 101.428L193.349 101.525C194.886 102.544 196.78 103.629 198.89 104.736C205.859 108.405 215.148 112.344 221.535 114.93C225.899 116.683 228.907 117.822 228.907 117.822Z" fill="#E9E9EF"/>
<path opacity="0.1" d="M237.255 118.397L235.24 133.071L230.059 132.496C230.059 132.496 229.745 132.208 229.213 131.725C230.364 131.751 232.252 131.42 232.65 129.043C232.65 129.043 230.655 122.066 233.801 119.065C234.987 119.087 236.163 118.86 237.255 118.397Z" fill="black"/>
<path d="M233.225 129.043C233.225 129.043 230.347 118.973 236.967 117.822L247.906 122.138L260.572 123.001C260.572 123.001 263.879 128.399 258.577 134.441C257.124 136.079 255.355 137.408 253.377 138.347C251.399 139.286 249.251 139.817 247.063 139.908L233.222 140.555L228.905 131.636C228.905 131.636 232.65 132.496 233.225 129.043Z" fill="#DC9BA3"/>
<path opacity="0.1" d="M162.946 89.4325C161.506 89.8554 155.496 91.648 149.347 94.0821C146.309 95.2513 143.35 96.615 140.487 98.1648C139.891 98.4986 139.336 98.8352 138.789 99.1747C137.177 100.196 135.879 101.243 135.076 102.282C131.523 106.886 126.305 109.349 123.708 110.358C123.541 109.278 123.69 108.172 124.137 107.173L135.683 99.051L134.054 98.982L136.215 97.9117L134.917 97.8311L150.605 90.7819C150.605 90.7819 155.795 90.4194 162.946 89.4325Z" fill="black"/>
<path opacity="0.1" d="M144.463 53.896L143.415 57.1128L133.916 47.3302C133.916 47.3302 134.333 46.3606 134.958 45.0026C136.158 47.5489 141.892 51.9884 144.463 53.896Z" fill="black"/>
<path d="M110.191 58.6751C109.851 57.6998 109.602 56.6952 109.448 55.6741L97.0702 59.99C97.0702 59.99 88.5785 66.4637 89.442 80.5621C89.442 80.5621 99.9487 76.6778 104.554 81.2814L104.649 82.0927C105.623 90.1365 109.184 97.6467 114.796 103.493C117.099 105.896 119.244 108.606 120.386 111.204C120.386 111.204 128.446 108.903 133.34 102.573C138.233 96.2429 161.55 89.6253 161.55 89.6253C161.55 89.6253 149.172 89.913 147.445 85.5972C145.718 81.2814 139.96 72.0743 141.975 64.8812C143.99 57.6882 145.142 55.3864 145.142 55.3864C145.142 55.3864 133.34 47.0425 134.203 44.453L126.719 53.0847L123.265 54.2355C123.536 54.9034 123.674 55.6179 123.671 56.3388C123.855 64.1619 112.813 66.0436 110.191 58.6751Z" fill="#CEDAD5"/>
<path d="M41.3963 94.7351C41.3963 94.7351 43.8085 97.9 40.2823 102.647C36.7561 107.395 33.8488 111.426 35.0261 114.395C35.0261 114.395 40.3456 105.553 44.675 105.43C49.0043 105.306 46.1603 100.061 41.3963 94.7351Z" fill="#1742D0"/>
<path opacity="0.1" d="M41.3964 94.7351C41.6066 95.04 41.7723 95.3733 41.8886 95.7249C46.1143 100.685 48.3624 105.315 44.3037 105.433C40.5213 105.542 35.9847 112.301 34.8966 114.01C34.9325 114.141 34.9758 114.271 35.0261 114.398C35.0261 114.398 40.3457 105.556 44.675 105.433C49.0043 105.309 46.1603 100.061 41.3964 94.7351Z" fill="black"/>
<path d="M45.8725 98.7633C45.8725 99.8739 45.7487 100.777 45.5846 100.777C45.4205 100.777 45.2968 99.8767 45.2968 98.7633C45.2968 97.6498 45.4522 98.1878 45.6048 98.1878C45.7573 98.1878 45.8725 97.6527 45.8725 98.7633Z" fill="#FFD037"/>
<path d="M47.4182 100.09C46.4424 100.622 45.5932 100.953 45.5213 100.806C45.4493 100.659 46.1776 100.13 47.1534 99.6006C48.1292 99.0712 47.7435 99.4567 47.8183 99.6006C47.8932 99.7445 48.3941 99.5574 47.4182 100.09Z" fill="#FFD037"/>
<path d="M28.653 94.7351C28.653 94.7351 26.2408 97.9 29.767 102.647C33.2932 107.395 36.2006 111.426 35.0232 114.395C35.0232 114.395 29.7037 105.553 25.3744 105.43C21.045 105.306 23.8919 100.061 28.653 94.7351Z" fill="#1742D0"/>
<path opacity="0.1" d="M28.653 94.7351C28.4428 95.04 28.2771 95.3733 28.1608 95.7249C23.9351 100.685 21.6869 105.315 25.7457 105.433C29.5281 105.542 34.0647 112.301 35.1528 114.01C35.1169 114.141 35.0736 114.271 35.0232 114.398C35.0232 114.398 29.7037 105.556 25.3744 105.433C21.045 105.309 23.8919 100.061 28.653 94.7351Z" fill="black"/>
<path d="M24.1682 98.7633C24.1682 99.8739 24.292 100.777 24.4561 100.777C24.6201 100.777 24.7439 99.8767 24.7439 98.7633C24.7439 97.6498 24.5885 98.1878 24.4359 98.1878C24.2834 98.1878 24.1682 97.6527 24.1682 98.7633Z" fill="#FFD037"/>
<path d="M22.6312 100.09C23.607 100.622 24.4562 100.953 24.5282 100.806C24.6001 100.659 23.8718 100.13 22.896 99.6006C21.9202 99.0712 22.3059 99.4567 22.2311 99.6006C22.1562 99.7445 21.6554 99.5574 22.6312 100.09Z" fill="#FFD037"/>
<path d="M24.9369 113.992C24.9369 113.992 31.6813 113.785 33.7136 112.338C35.7458 110.891 44.0763 109.173 44.5916 111.475C45.1068 113.777 54.7269 123.015 47.1132 123.076C39.4994 123.136 29.4217 121.89 27.3923 120.656C25.3629 119.422 24.9369 113.992 24.9369 113.992Z" fill="#A8A8A8"/>
<path opacity="0.2" d="M47.2513 122.279C39.6375 122.339 29.5598 121.093 27.5304 119.859C25.9846 118.918 25.3686 115.543 25.1642 113.987H24.9397C24.9397 113.987 25.3657 119.425 27.3951 120.659C29.4245 121.893 39.5022 123.142 47.116 123.079C49.3152 123.061 50.0723 122.279 50.032 121.122C49.724 121.827 48.8863 122.264 47.2513 122.279Z" fill="black"/>
<path d="M78.849 152.046C79.3766 151.616 79.7611 151.037 79.9515 150.383C80.0954 149.722 79.8133 148.93 79.1801 148.689C78.4719 148.418 77.7149 148.907 77.1421 149.405C76.5692 149.903 75.91 150.467 75.1587 150.36C75.5449 150.01 75.8338 149.567 75.9972 149.072C76.1607 148.577 76.1931 148.049 76.0914 147.538C76.0589 147.326 75.9694 147.127 75.8323 146.962C75.438 146.542 74.727 146.724 74.2549 147.054C72.758 148.107 72.3407 150.139 72.332 151.969C72.1823 151.31 72.309 150.622 72.3032 149.955C72.2975 149.287 72.1133 148.516 71.5433 148.165C71.1899 147.975 70.793 147.881 70.3919 147.892C69.7183 147.866 68.9699 147.935 68.5093 148.427C67.9336 149.037 68.0862 150.064 68.5842 150.729C69.0821 151.393 69.8363 151.822 70.5329 152.288C71.0912 152.62 71.5675 153.073 71.9262 153.614C71.9683 153.69 72.003 153.769 72.0298 153.85H76.2411C77.188 153.37 78.0653 152.763 78.849 152.046Z" fill="#1742D0"/>
<path d="M97.5595 161.199C98.0871 160.769 98.4715 160.189 98.662 159.536C98.8059 158.874 98.5238 158.083 97.8905 157.841C97.1824 157.571 96.4254 158.06 95.8525 158.558C95.2797 159.055 94.6205 159.619 93.8692 159.513C94.2554 159.163 94.5442 158.719 94.7077 158.224C94.8711 157.73 94.9036 157.201 94.8019 156.69C94.7694 156.478 94.6798 156.28 94.5428 156.115C94.1484 155.695 93.4374 155.876 92.9653 156.207C91.4685 157.26 91.0511 159.291 91.0425 161.121C90.8928 160.462 91.0195 159.775 91.0137 159.107C91.0079 158.44 90.8237 157.669 90.2538 157.317C89.9003 157.128 89.5034 157.033 89.1023 157.044C88.4288 157.018 87.6803 157.087 87.2198 157.579C86.6441 158.189 86.7966 159.216 87.2946 159.881C87.7926 160.546 88.5468 160.974 89.2434 161.441C89.8017 161.772 90.2779 162.226 90.6366 162.767C90.6788 162.842 90.7135 162.921 90.7402 163.003H94.9515C95.8984 162.522 96.7757 161.915 97.5595 161.199Z" fill="#1742D0"/>
<path d="M120.53 117.678C120.53 117.678 148.452 106.169 171.193 117.103L165.723 128.612L139.529 129.187L120.53 117.678Z" fill="#1742D0"/>
<path opacity="0.1" d="M123.403 51.1109C123.491 50.0353 123.637 48.9654 123.841 47.9056L107.721 46.467C107.721 46.467 108.838 47.4309 109.324 51.0274C111.215 52.1495 113.423 53.6601 115.781 53.6601C118.532 53.6643 121.209 52.769 123.403 51.1109Z" fill="black"/>
<path d="M115.925 53.2284C122.92 53.2284 128.59 47.5605 128.59 40.5687C128.59 33.5769 122.92 27.9089 115.925 27.9089C108.93 27.9089 103.259 33.5769 103.259 40.5687C103.259 47.5605 108.93 53.2284 115.925 53.2284Z" fill="#FFD2D9"/>
<path d="M106.569 43.8775H108.296V38.9862L110.024 33.8072C110.024 33.8072 118.659 29.7791 122.689 30.6423L125.856 33.5195C125.856 33.5195 126.719 26.6142 121.538 24.0247C116.356 21.4352 107.145 22.5861 104.842 24.6001C102.539 26.6142 98.7972 30.0668 101.676 39.5617L102.539 41.8634C102.539 41.8634 105.994 40.7125 106.569 43.8775Z" fill="#844F6E"/>
<g opacity="0.05">
<path opacity="0.05" d="M128.941 50.5239L129.886 50.2102L134.244 45.1953C134.158 44.9576 134.148 44.6994 134.215 44.4558L128.941 50.5239Z" fill="black"/>
<path opacity="0.05" d="M122.882 59.8029C125.165 58.7958 126.912 56.6092 126.834 53.473C126.834 53.3032 126.834 53.1421 126.806 52.9896L126.713 53.0932L123.259 54.2441C123.53 54.912 123.668 55.6265 123.665 56.3473C123.711 57.5477 123.441 58.7391 122.882 59.8029Z" fill="black"/>
<path opacity="0.05" d="M156.46 89.3893C149.247 91.8982 139.477 95.8486 136.506 99.6955C136.434 99.7904 136.359 99.8796 136.285 99.9832C144.189 94.5654 161.549 89.6252 161.549 89.6252C159.85 89.643 158.151 89.5642 156.46 89.3893Z" fill="black"/>
<path opacity="0.05" d="M123.553 108.327C122.401 105.738 120.251 103.019 117.963 100.616C112.351 94.7694 108.79 87.2592 107.816 79.2154L107.721 78.404C103.115 73.8005 92.6084 77.6847 92.6084 77.6847C92.0615 68.7423 95.2768 62.8699 97.7006 59.7683L97.0702 59.9899C97.0702 59.9899 88.5785 66.4636 89.442 80.5619C89.442 80.5619 99.9487 76.6777 104.554 81.2812L104.649 82.0926C105.623 90.1364 109.184 97.6466 114.796 103.493C117.099 105.896 119.244 108.606 120.386 111.204C120.386 111.204 127.401 109.19 132.315 103.793C129.667 105.78 126.705 107.313 123.553 108.327Z" fill="black"/>
</g>
<path d="M120.386 74.6637C120.386 74.6637 106.569 94.5164 99.3731 100.271C92.1767 106.025 90.1617 97.6814 90.1617 97.6814V79.2672L102.827 77.8286L102.963 79.5751L103.115 81.569L114.917 68.9092C114.917 68.9092 126.719 58.2635 129.022 64.5934C131.325 70.9233 120.386 74.6637 120.386 74.6637Z" fill="#FFD2D9"/>
<path opacity="0.1" d="M102.963 79.5751C101.233 80.5806 99.3995 81.3939 97.4934 82.0006C94.7731 82.8379 91.6557 81.9574 90.1531 81.4252V79.2759L102.819 77.8373L102.963 79.5751Z" fill="black"/>
<path d="M90.0178 77.3971L89.2607 80.4786C89.2607 80.4786 93.7599 82.5761 97.502 81.4252C101.244 80.2743 104.123 78.2603 104.698 77.9726C105.274 77.6848 102.396 74.5199 102.396 74.5199L90.0178 77.3971Z" fill="#CEDAD5"/>
<path opacity="0.1" d="M172.92 112.499C174.839 111.028 176.976 109.863 179.253 109.046C181.416 108.303 183.454 107.236 185.298 105.881" fill="black"/>
<path opacity="0.2" d="M260.571 123.001L260.099 122.969C260.784 124.696 261.775 128.951 257.713 133.586C256.26 135.225 254.492 136.553 252.513 137.492C250.535 138.432 248.387 138.963 246.199 139.053L232.794 139.68L233.222 140.563L247.065 139.907C249.254 139.817 251.401 139.286 253.38 138.347C255.358 137.408 257.127 136.079 258.58 134.441C263.879 128.399 260.571 123.001 260.571 123.001Z" fill="white"/>
<path opacity="0.05" d="M195.298 137.819H195.255C195.292 138.498 195.358 139.899 195.37 141.438C195.381 140.086 195.338 138.757 195.298 137.819Z" fill="#00FF00"/>
<path opacity="0.05" d="M211.694 135.333C211.734 135.507 211.779 135.679 211.829 135.848C212.111 135.687 212.517 135.382 211.694 135.333Z" fill="#00FF00"/>
<path opacity="0.2" d="M234.377 141.991C231.426 143.331 209.238 139.427 206.222 138.886C206.161 139.173 206.045 139.446 205.879 139.689C205.879 139.689 231.21 144.292 234.377 142.854C236.006 142.114 236.415 141.145 236.193 140.264C236.026 140.877 235.485 141.487 234.377 141.991Z" fill="white"/>
<path opacity="0.05" d="M195.254 137.821C195.24 137.534 195.229 137.387 195.229 137.387C195.229 137.387 193.763 137.911 195.254 137.821Z" fill="#00FF00"/>
<path opacity="0.1" d="M127.128 34.2389H109.615C108.966 34.2389 108.44 34.7645 108.44 35.4128V42.8475C108.44 43.4958 108.966 44.0214 109.615 44.0214H127.128C127.777 44.0214 128.302 43.4958 128.302 42.8475V35.4128C128.302 34.7645 127.777 34.2389 127.128 34.2389Z" fill="black"/>
<path opacity="0.1" d="M108.602 37.4038H101.659C101.271 37.4038 100.956 37.7181 100.956 38.1059V40.4422C100.956 40.8299 101.271 41.1442 101.659 41.1442H108.602C108.989 41.1442 109.304 40.8299 109.304 40.4422V38.1059C109.304 37.7181 108.989 37.4038 108.602 37.4038Z" fill="black"/>
<path d="M127.128 33.9512H109.615C108.966 33.9512 108.44 34.4767 108.44 35.1251V42.5598C108.44 43.2081 108.966 43.7337 109.615 43.7337H127.128C127.777 43.7337 128.302 43.2081 128.302 42.5598V35.1251C128.302 34.4767 127.777 33.9512 127.128 33.9512Z" fill="#7679B4"/>
<path d="M127.108 34.5266H111.932C111.284 34.5266 110.758 35.0522 110.758 35.7005V41.9844C110.758 42.6327 111.284 43.1583 111.932 43.1583H127.108C127.756 43.1583 128.282 42.6327 128.282 41.9844V35.7005C128.282 35.0522 127.756 34.5266 127.108 34.5266Z" fill="#565388"/>
<path d="M108.602 37.1161H101.659C101.271 37.1161 100.956 37.4304 100.956 37.8181V40.1544C100.956 40.5422 101.271 40.8565 101.659 40.8565H108.602C108.989 40.8565 109.304 40.5422 109.304 40.1544V37.8181C109.304 37.4304 108.989 37.1161 108.602 37.1161Z" fill="#565388"/>
<path opacity="0.1" d="M123.973 34.5209C127.088 32.6383 129.618 29.9266 131.279 26.6891C131.472 26.3122 131.656 25.8892 131.549 25.4806C131.345 24.698 130.323 24.5599 129.586 24.2233C128.213 23.5932 127.635 22.0021 126.734 20.7908C125.963 19.7804 124.928 19.0034 123.742 18.5462C122.557 18.0891 121.267 17.9697 120.018 18.2013C118.705 18.466 117.491 19.1162 116.166 19.3119C113.311 19.7291 110.196 17.9999 107.632 19.3119C106.463 19.9132 105.671 21.0382 104.975 22.1603C103.227 24.9541 101.037 27.9148 102.626 31.1919C103.538 33.065 104.995 34.6187 107.042 35.1653C109.088 35.712 111.457 35.2574 113.538 35.0301C115.251 34.846 117.044 34.4547 118.769 34.6359C120.787 34.8546 122.047 35.6775 123.973 34.5209Z" fill="black"/>
<path d="M123.973 33.9454C127.088 32.0629 129.618 29.3512 131.279 26.1136C131.472 25.7367 131.656 25.3138 131.549 24.9052C131.345 24.1226 130.323 23.9845 129.586 23.6479C128.213 23.0177 127.635 21.4266 126.734 20.2153C125.963 19.205 124.928 18.428 123.742 17.9708C122.557 17.5136 121.267 17.3942 120.018 17.6258C118.705 17.8905 117.491 18.5408 116.166 18.7364C113.311 19.1536 110.196 17.4244 107.632 18.7364C106.463 19.3378 105.671 20.4628 104.975 21.5849C103.227 24.3787 101.037 27.3393 102.626 30.6165C103.538 32.4895 104.995 34.0432 107.042 34.5899C109.088 35.1366 111.457 34.682 113.538 34.4547C115.251 34.2705 117.044 33.8792 118.769 34.0605C120.787 34.2792 122.047 35.102 123.973 33.9454Z" fill="#844F6E"/>
<path opacity="0.2" d="M298.997 67.111L173.783 89.4814V22.3703L298.997 0V67.111Z" fill="#1742D0"/>
<path opacity="0.2" d="M273.056 7.74253L296.214 3.75183L296.55 14.1242L272.779 18.0976L273.056 7.74253Z" fill="#1742D0"/>
<g opacity="0.2">
<path opacity="0.1" d="M228.012 65.6523C228.797 65.4749 229.604 65.408 230.407 65.4537C235.142 65.5372 240.056 66.0004 244.702 64.5906C247.169 63.8483 249.383 62.6226 251.927 62.096C256.245 61.207 260.563 62.5046 264.809 61.4228C265.672 61.2012 266.729 60.8905 267.342 61.2242C268.053 61.6098 267.549 62.6111 268.416 62.8643C268.69 62.8983 268.96 62.96 269.221 63.0484C269.538 63.2325 269.34 63.6238 269.023 63.8742C267.097 65.4365 263.179 64.3978 260.767 65.6609C260.232 65.9486 259.829 66.3112 259.328 66.6104C258.535 67.0189 257.695 67.3282 256.826 67.5311L243.433 71.2715C240.226 72.1663 236.976 73.0726 233.66 73.4668C230.344 73.861 226.904 73.6998 224.475 72.5748C223.954 72.3332 223.47 72.0368 223.271 71.634C222.327 69.735 224.676 66.5385 228.012 65.6523Z" fill="#252223"/>
<path opacity="0.3" d="M216.196 39.1475L227.402 48.0035L238.608 56.8567L220.203 60.3353L201.797 63.811L208.997 51.4792L216.196 39.1475Z" fill="#1742D0"/>
<path opacity="0.3" d="M227.848 37.0989L239.054 45.9521L250.261 54.8081L231.855 58.2838L213.45 61.7624L220.649 49.4306L227.848 37.0989Z" fill="#1742D0"/>
<path opacity="0.2" d="M245.18 18.676L223.553 59.8547L264.567 51.8762L279.722 49.0134L245.18 18.676Z" fill="#1742D0"/>
<path opacity="0.1" d="M279.722 49.0134L264.567 51.8762L245.18 18.676L279.722 49.0134Z" fill="black"/>
<path opacity="0.2" d="M256.582 37.7663C256.509 37.4982 256.344 37.2645 256.115 37.1065C255.886 36.9485 255.609 36.8765 255.332 36.9032C255.332 36.9032 255.62 34.6417 250.957 35.5537C250.877 35.3906 250.76 35.2481 250.616 35.1371C250.472 35.026 250.305 34.9495 250.126 34.9134C249.948 34.8773 249.764 34.8825 249.588 34.9287C249.412 34.9748 249.249 35.0607 249.112 35.1797L248.913 34.1295C248.913 34.1295 246.357 35.594 249.066 37.6829L249.391 39.4092C249.399 39.4529 249.413 39.4954 249.431 39.5358C249.446 39.5672 249.458 39.6 249.466 39.6336C249.59 40.1371 250.499 44.1278 248.433 45.4916C246.219 46.9734 244.952 42.4073 244.952 42.4073C243.513 36.4428 240.773 36.4658 240.122 36.5608C240.045 36.5608 239.964 36.578 239.883 36.5838C239.578 36.6011 238.631 36.9406 238.268 40.3788C237.834 44.5048 236.253 43.4747 236.253 43.4747C232.71 41.5441 230.209 43.233 230.209 43.233C224.06 46.8468 229.287 53.6255 230.367 54.9116C229.961 56.9573 229.141 60.5625 228.352 60.7121C227.235 60.9221 225.145 64.8409 230.804 70.9349L232.31 70.6471C232.31 70.6471 227.655 64.5705 231.32 61.5465C231.24 61.7692 231.144 61.9856 231.032 62.1939C228.979 65.7012 235.963 69.9278 235.963 69.9278L237.638 69.6113L233.769 64.7402C232.232 62.7262 235.099 61.0804 235.099 61.0804C238.493 58.2435 236.746 54.8196 236.746 54.8196L244.667 53.3234C243.689 55.4871 242.249 60.8042 247.034 67.8073L248.15 67.5973L247.238 59.1037C247.238 59.1037 247.526 57.2767 249.466 54.5203C250.237 57.973 251.872 63.9317 254.342 66.4263L255.96 66.1213C255.96 66.1213 253.988 60.4675 253.945 58.3528C253.925 57.4896 253.887 56.6409 253.81 55.7892L253.407 51.3353C254.06 50.9212 254.573 50.3184 254.876 49.6068C255.179 48.8952 255.259 48.1083 255.105 47.3503L253.617 39.6221C253.596 39.5134 253.597 39.4015 253.621 39.2933C253.645 39.1851 253.691 39.0829 253.755 38.9929C253.82 38.903 253.902 38.8271 253.997 38.7701C254.092 38.713 254.198 38.676 254.308 38.6611L256.216 38.4022C256.285 38.3901 256.351 38.363 256.408 38.3228C256.465 38.2827 256.513 38.2304 256.548 38.1697C256.583 38.1091 256.604 38.0415 256.61 37.9718C256.615 37.9021 256.606 37.8319 256.582 37.7663Z" fill="url(#paint0_linear)"/>
<path opacity="0.2" d="M248.81 51.9682C248.81 51.9682 250.6 62.6312 254.103 66.1644L255.692 65.8767C255.692 65.8767 253.758 60.3266 253.706 58.2578C253.686 57.4177 253.651 56.5775 253.574 55.7403L252.923 48.5472L248.81 51.9682Z" fill="#535461"/>
<path opacity="0.05" d="M248.81 51.9682C248.81 51.9682 250.6 62.6312 254.103 66.1644L255.692 65.8767C255.692 65.8767 253.758 60.3266 253.706 58.2578C253.686 57.4177 253.651 56.5775 253.574 55.7403L252.923 48.5472L248.81 51.9682Z" fill="black"/>
<path opacity="0.2" d="M230.822 53.4961C230.822 53.4961 229.67 60.3467 228.582 60.5539C227.494 60.7611 225.433 64.6079 230.992 70.5896L232.471 70.3019C232.471 70.3019 227.347 63.6152 232.221 60.879C232.218 60.8876 233.067 55.1678 230.822 53.4961Z" fill="#535461"/>
<path opacity="0.05" d="M230.822 53.4961C230.822 53.4961 229.67 60.3467 228.582 60.5539C227.494 60.7611 225.433 64.6079 230.992 70.5896L232.471 70.3019C232.471 70.3019 227.347 63.6152 232.221 60.879C232.218 60.8876 233.067 55.1678 230.822 53.4961Z" fill="black"/>
<path opacity="0.2" d="M249.25 39.6538L248.931 37.9678C246.274 35.9192 248.781 34.4806 248.781 34.4806L249.124 36.2875C255.419 34.4748 255.082 37.2024 255.082 37.2024C255.353 37.1749 255.624 37.2438 255.848 37.3971C256.073 37.5503 256.236 37.7779 256.308 38.0397C256.332 38.1055 256.34 38.1756 256.333 38.245C256.326 38.3144 256.303 38.3814 256.267 38.4409C256.23 38.5004 256.181 38.5511 256.122 38.5892C256.064 38.6273 255.998 38.6519 255.928 38.6612L254.055 38.9173C253.947 38.9317 253.843 38.9681 253.749 39.0241C253.656 39.0801 253.575 39.1545 253.511 39.2429C253.448 39.3312 253.403 39.4316 253.38 39.5379C253.356 39.6442 253.355 39.7541 253.375 39.861L254.835 47.4482C254.941 47.9911 254.927 48.5506 254.795 49.0877C254.663 49.6249 254.415 50.1268 254.069 50.5585C253.528 51.2231 252.661 51.8216 251.28 52.0402L236.818 54.7736C236.818 54.7736 238.545 58.1371 235.2 60.9193C235.2 60.9193 232.385 62.5277 233.893 64.513L237.69 69.2949L236.046 69.6056C236.046 69.6056 229.193 65.4567 231.207 62.0127C231.755 60.9182 232 59.6978 231.919 58.477C231.837 57.2562 231.432 56.0792 230.744 55.0671C230.744 55.0671 223.72 47.3216 230.407 43.3913C230.407 43.3913 232.874 41.7341 236.351 43.6301C236.351 43.6301 237.903 44.64 238.329 40.5918C238.683 37.2168 239.613 36.8831 239.912 36.8658C239.99 36.8658 240.068 36.8658 240.145 36.8428C240.784 36.7507 243.482 36.7277 244.889 42.5828C244.889 42.5828 246.133 47.054 248.3 45.624C250.33 44.2861 249.452 40.3674 249.316 39.8696C249.308 39.837 249.296 39.8052 249.282 39.7747C249.267 39.7358 249.256 39.6952 249.25 39.6538Z" fill="#535461"/>
<path opacity="0.2" d="M245.168 52.2589C245.168 52.2589 240.718 58.4305 246.921 67.5082L248.018 67.301L247.123 58.9571C247.123 58.9571 247.653 55.4555 252.457 50.8606L245.168 52.2589Z" fill="#535461"/>
<path opacity="0.2" d="M249.956 37.5633C250.592 37.4432 251.01 36.8307 250.89 36.1952C250.77 35.5597 250.157 35.1419 249.521 35.2619C248.886 35.382 248.468 35.9945 248.588 36.63C248.708 37.2655 249.321 37.6833 249.956 37.5633Z" fill="#535461"/>
<path opacity="0.2" d="M244.806 44.0789C246.159 42.0217 245.353 41.8865 244.829 41.3456C244.472 40.9773 241.472 40.8363 239.604 40.7845C239.564 40.6407 239.501 40.399 239.426 40.1055C239.426 40.1055 239.276 39.5646 239.207 39.1848H239.325L239.308 39.0726L241.61 38.9489C243.577 38.8683 243.672 38.0857 243.672 38.0857C243.718 36.742 241.498 38.031 241.498 38.031C241.058 38.2468 239.889 38.0857 238.977 37.9073C238.951 37.7165 238.937 37.5243 238.933 37.3319C238.945 37.0343 238.925 36.7364 238.876 36.4428C238.843 36.1893 238.744 35.9489 238.588 35.7465C237.913 34.94 237.133 34.2278 236.268 33.6289C236.217 33.1212 236.264 32.6084 236.406 32.1183C236.755 31.9391 237.038 31.6525 237.212 31.3009C237.386 30.9492 237.443 30.5509 237.373 30.1647C237.34 29.9878 237.28 29.8171 237.195 29.6583C237.606 29.1117 237.414 28.1766 236.844 27.6644C236.783 27.6097 236.717 27.5606 236.648 27.5177C236.278 27.2706 235.83 27.1682 235.39 27.23C234.899 27.3102 234.432 27.5011 234.026 27.7881C233.539 28.1104 233.067 28.519 232.485 28.5822C232.065 28.6283 231.622 28.4844 231.228 28.6139C230.707 28.7808 230.439 29.3361 230.272 29.8454C230.105 30.3546 229.944 30.9157 229.492 31.2207C229.097 31.4854 228.588 31.4825 228.125 31.5947C227.801 31.6627 227.499 31.8094 227.245 32.0216C226.992 32.2339 226.795 32.5052 226.671 32.8118C226.58 33.0878 226.581 33.3861 226.676 33.6611C226.771 33.936 226.953 34.1723 227.195 34.3338C227.271 34.3897 227.354 34.4352 227.442 34.469C227.541 34.4994 227.637 34.5369 227.73 34.5812C227.756 34.6 227.777 34.6237 227.794 34.6508C227.81 34.678 227.821 34.7081 227.825 34.7395C227.827 34.818 227.81 34.8958 227.776 34.9668C227.723 35.1255 227.702 35.2935 227.717 35.4603C227.731 35.6272 227.78 35.7892 227.86 35.9364C227.913 36.0439 227.996 36.1338 228.099 36.1954C228.128 36.2195 228.159 36.2398 228.194 36.2558C228.53 36.4025 228.948 36.0716 229.282 36.2213H229.308C229.437 36.3615 229.549 36.5171 229.641 36.6845C229.72 36.7833 229.818 36.8655 229.929 36.9262C230.222 37.1179 230.576 37.1939 230.922 37.1391C231.362 37.0545 231.781 36.8865 232.157 36.6442C232.667 36.3565 233.222 35.9566 233.263 35.3869C233.286 35.0387 233.104 34.7021 233.148 34.3568C233.171 34.1919 233.237 34.0361 233.34 33.9051C233.283 34.1967 233.263 34.4945 233.28 34.7913C233.29 35.032 233.319 35.2715 233.366 35.5077C233.476 36.1253 233.698 36.7174 234.023 37.2542C234.459 37.9527 234.779 38.7175 234.97 39.5185C235.038 39.8716 235.044 40.2338 234.987 40.5889C234.803 41.6189 234.823 42.062 234.875 42.249C234.906 42.5022 234.99 42.5051 234.99 42.5051H235.01C235.019 42.6796 235.064 42.8505 235.141 43.0073C235.218 43.164 235.326 43.3035 235.459 43.4172C238.064 44.4933 243.364 42.9683 243.364 42.9683C242.293 43.3452 241.527 46.2771 241.527 46.2771C241.41 46.9153 241.144 47.5168 240.75 48.0322C240.174 47.9459 239.495 48.5904 238.982 48.9673L238.939 48.9961C238.889 49.0302 238.847 49.0745 238.816 49.1262C238.785 49.1779 238.765 49.2356 238.758 49.2956C238.751 49.3556 238.757 49.4163 238.775 49.4739C238.793 49.5314 238.824 49.5843 238.864 49.6291L240.902 51.8618C242.077 52.6933 242.753 52.748 242.943 52.5121C243.067 52.3567 242.984 52.0805 242.696 51.8129C241.999 51.1655 242.1 49.0651 242.12 48.8868C242.439 48.1675 243.669 45.8081 244.806 44.0789Z" fill="url(#paint1_linear)"/>
<path opacity="0.2" d="M236.57 31.8537C236.57 31.8537 235.977 33.2146 236.369 34.3856L234.161 33.2146C234.161 33.2146 234.863 33.0247 234.716 31.353L236.57 31.8537Z" fill="#F9D5C6"/>
<path opacity="0.2" d="M238.05 40.8738C238.05 40.8738 243.908 40.9572 244.406 41.4866C244.904 42.0161 245.666 42.157 244.406 44.1538C243.145 46.1506 241.752 49.0221 241.752 49.0221L240.26 48.3402C240.801 47.7691 241.159 47.0498 241.288 46.2743C241.288 46.2743 241.996 43.4173 243.015 43.0576C243.015 43.0576 238.015 44.5135 235.531 43.4489C235.531 43.4489 234.869 42.9511 235.177 41.8722C235.485 40.7932 238.05 40.8738 238.05 40.8738Z" fill="#353535"/>
<path opacity="0.1" d="M234.797 33.2663C234.797 33.2663 233.335 32.9067 233.441 35.148C233.483 35.9604 233.722 36.7503 234.138 37.4498C234.613 38.2612 235.289 39.6566 235.091 40.8162C234.803 42.5713 235.091 42.5741 235.091 42.5741L235.839 42.1195C236.847 41.504 238.005 41.1757 239.187 41.1701H239.535C239.535 41.1701 238.833 38.6496 238.818 37.5333C238.818 37.0039 238.818 36.5118 238.499 36.0947C237.5 34.8057 235.496 33.2635 234.797 33.2663Z" fill="black"/>
<path opacity="0.2" d="M234.777 33.1628C234.777 33.1628 233.315 32.8032 233.421 35.0445C233.463 35.8569 233.702 36.6468 234.118 37.3463C234.593 38.1577 235.269 39.5531 235.07 40.7126C234.783 42.4677 235.07 42.4706 235.07 42.4706L235.819 42.016C236.827 41.4005 237.985 41.0721 239.167 41.0665H239.515C239.515 41.0665 238.813 38.5461 238.798 37.4297C238.798 36.9003 238.798 36.4083 238.479 35.9911C237.48 34.6964 235.476 33.1628 234.777 33.1628Z" fill="#409CD6"/>
<path opacity="0.1" d="M234.233 34.9582C234.293 34.7928 234.394 34.6451 234.526 34.5287C234.658 34.4123 234.818 34.331 234.99 34.292C235.161 34.2531 235.34 34.2579 235.51 34.3059C235.679 34.3539 235.834 34.4437 235.96 34.5669C236.186 34.804 236.365 35.0811 236.49 35.384C237.183 36.955 237.71 37.9332 237.71 37.9332C238.156 37.9994 238.596 38.1014 239.026 38.2382C239.092 38.7763 239.178 39.3344 239.178 39.3344L237.31 39.4265L234.751 36.3939C234.751 36.3939 233.971 35.7523 234.233 34.9582Z" fill="black"/>
<path opacity="0.2" d="M234.21 34.846C234.27 34.6806 234.371 34.5329 234.503 34.4165C234.635 34.3002 234.795 34.2188 234.967 34.1799C235.138 34.1409 235.317 34.1457 235.487 34.1937C235.656 34.2417 235.811 34.3315 235.937 34.4547C236.163 34.6919 236.342 34.969 236.467 35.2718C237.16 36.8428 237.687 37.8211 237.687 37.8211C237.687 37.8211 240.499 38.595 241.225 38.2296C241.225 38.2296 243.315 36.9838 243.28 38.2958C243.28 38.2958 243.197 39.0496 241.337 39.1158L237.29 39.3143L234.731 36.2817C234.731 36.2817 233.951 35.6286 234.21 34.846Z" fill="#F9D5C6"/>
<path opacity="0.1" d="M234.547 32.0924C234.601 31.8306 234.725 31.9313 234.685 31.4709L236.538 31.9716C236.462 32.1586 236.398 32.3509 236.349 32.547C236.163 32.6106 235.969 32.6465 235.773 32.6535C235.364 32.734 234.895 32.2852 234.547 32.0924Z" fill="black"/>
<path opacity="0.2" d="M235.863 32.6265C236.831 32.4436 237.468 31.5105 237.285 30.5425C237.102 29.5744 236.169 28.9379 235.2 29.1208C234.232 29.3037 233.595 30.2368 233.778 31.2049C233.961 32.173 234.894 32.8094 235.863 32.6265Z" fill="#F9D5C6"/>
<path opacity="0.1" d="M236.262 30.4467C235.945 30.4639 235.6 30.3632 235.332 30.5301C235.065 30.697 234.987 31.1545 235.045 31.5112C235.102 31.868 235.252 32.2277 235.168 32.5816C235.056 33.0448 234.593 33.3296 234.19 33.5742C233.787 33.8188 233.326 34.1496 233.283 34.6158C233.245 34.9524 233.418 35.2833 233.398 35.6228C233.363 36.1781 232.842 36.5608 232.359 36.8427C232.01 37.0745 231.619 37.2357 231.207 37.3175C230.998 37.3546 230.783 37.3359 230.583 37.2632C230.383 37.1904 230.207 37.0662 230.07 36.9031C229.941 36.7248 229.863 36.4859 229.662 36.3939C229.345 36.2443 228.951 36.5665 228.634 36.4226C228.523 36.3636 228.434 36.2696 228.381 36.1551C228.305 36.0112 228.258 35.8537 228.244 35.6916C228.229 35.5296 228.248 35.3663 228.297 35.2113C228.328 35.1417 228.343 35.0659 228.34 34.9898C228.314 34.8085 228.093 34.7481 227.92 34.6819C227.636 34.546 227.411 34.3113 227.287 34.0218C227.163 33.7322 227.149 33.4075 227.247 33.1081C227.357 32.8128 227.541 32.5501 227.78 32.344C228.019 32.1379 228.305 31.995 228.614 31.9284C229.051 31.8191 229.535 31.8249 229.903 31.5717C230.329 31.2839 230.479 30.7286 230.632 30.2338C230.784 29.7389 231.035 29.198 231.527 29.0397C231.907 28.916 232.319 29.057 232.716 29.0167C233.266 28.9591 233.709 28.5621 234.155 28.2514C234.536 27.9738 234.977 27.7895 235.442 27.7133C235.675 27.6773 235.912 27.692 236.139 27.7566C236.366 27.8212 236.576 27.934 236.754 28.0874C237.549 28.8095 237.598 30.3747 236.262 30.4467Z" fill="black"/>
<path opacity="0.2" d="M236.196 30.4036C235.879 30.4208 235.534 30.3201 235.266 30.487C234.998 30.6539 234.921 31.1114 234.978 31.4681C235.036 31.8249 235.186 32.1846 235.102 32.5385C234.99 33.0017 234.526 33.2865 234.123 33.5311C233.72 33.7757 233.26 34.1065 233.217 34.5726C233.179 34.9093 233.352 35.2402 233.332 35.5797C233.297 36.135 232.776 36.5177 232.293 36.7996C231.943 37.0314 231.552 37.1926 231.141 37.2744C230.933 37.3117 230.718 37.2936 230.519 37.2219C230.32 37.1502 230.144 37.0273 230.007 36.8658C229.878 36.6874 229.8 36.4486 229.598 36.3565C229.282 36.2069 228.887 36.5292 228.571 36.3853C228.459 36.3263 228.37 36.2322 228.317 36.1177C228.241 35.9739 228.195 35.8163 228.18 35.6543C228.166 35.4922 228.184 35.3289 228.234 35.174C228.265 35.1043 228.28 35.0286 228.277 34.9524C228.251 34.7712 228.029 34.7108 227.857 34.6446C227.573 34.5086 227.347 34.274 227.224 33.9844C227.1 33.6948 227.085 33.3701 227.183 33.0707C227.294 32.7754 227.477 32.5127 227.716 32.3066C227.955 32.1005 228.242 31.9576 228.551 31.8911C228.988 31.7817 229.472 31.7875 229.84 31.5343C230.266 31.2466 230.416 30.6913 230.568 30.1964C230.721 29.7015 230.971 29.1606 231.464 29.0024C231.844 28.8786 232.255 29.0196 232.652 28.9793C233.202 28.9218 233.646 28.5247 234.092 28.214C234.473 27.9365 234.913 27.7522 235.378 27.676C235.611 27.6399 235.849 27.6547 236.076 27.7193C236.302 27.7838 236.512 27.8967 236.691 28.05C237.483 28.7664 237.532 30.3288 236.196 30.4036Z" fill="#2F302F"/>
<path opacity="0.1" d="M236.72 34.915C236.72 34.915 234.417 35.0646 234.613 36.673C234.809 38.2814 233.813 34.8402 233.813 34.8402L234.708 33.8763L235.986 34.0317L236.72 34.915Z" fill="black"/>
<path opacity="0.2" d="M236.659 34.869C236.659 34.869 234.356 35.0186 234.552 36.627C234.748 38.2353 233.752 34.7942 233.752 34.7942L234.647 33.8303L235.925 33.9857L236.659 34.869Z" fill="#409CD6"/>
<path opacity="0.2" d="M238.784 49.5197L240.724 51.7093C241.841 52.5264 242.48 52.5725 242.658 52.3567C242.773 52.2071 242.693 51.9366 242.419 51.6748C241.726 51.013 241.844 48.7976 241.844 48.7976C241.569 48.8062 241.298 48.731 241.067 48.5819C240.836 48.4328 240.656 48.217 240.551 47.9632C240.001 47.8769 239.368 48.5012 238.884 48.8637L238.844 48.8925C238.796 48.9275 238.756 48.9723 238.726 49.024C238.696 49.0757 238.678 49.1332 238.672 49.1925C238.667 49.2518 238.674 49.3117 238.693 49.3681C238.712 49.4245 238.743 49.4762 238.784 49.5197Z" fill="#409CD6"/>
<path opacity="0.1" d="M241.846 48.8034C241.846 48.8034 240.741 48.9559 240.554 47.969C240.663 48.22 240.844 48.4332 241.074 48.5817C241.304 48.7302 241.573 48.8073 241.846 48.8034Z" fill="black"/>
<path opacity="0.1" d="M238.784 49.5198L240.724 51.7094C241.841 52.5265 242.48 52.5725 242.658 52.3567C242.1 52.1841 240.519 51.4936 238.89 48.8724L238.85 48.9012C238.803 48.9357 238.763 48.9798 238.734 49.0305C238.704 49.0813 238.686 49.1376 238.68 49.1959C238.674 49.2541 238.68 49.313 238.697 49.3688C238.715 49.4246 238.745 49.476 238.784 49.5198Z" fill="black"/>
<path opacity="0.2" d="M207.022 66.6565C207.022 66.6565 201.89 71.2428 213.585 74.5947C213.585 74.5947 215.111 69.784 211.838 66.7169C211.202 66.1183 210.368 65.7737 209.495 65.7482C208.622 65.7228 207.77 66.0183 207.1 66.5788L207.022 66.6565Z" fill="#1742D0"/>
<path opacity="0.2" d="M207.071 66.5702C207.071 66.5702 212.75 69.4158 213.585 74.5947" stroke="#535461" stroke-miterlimit="10"/>
<path opacity="0.2" d="M213.263 74.6437C213.263 74.6437 210.283 68.826 211.582 63.8858C212.142 61.8123 212.013 59.6128 211.213 57.6192C210.827 56.6775 210.356 55.7732 209.805 54.9175" stroke="#535461" stroke-width="2" stroke-miterlimit="10"/>
<path opacity="0.2" d="M210.606 51.813C210.75 52.5668 209.794 55.0153 209.794 55.0153C209.794 55.0153 208.012 53.0847 207.871 52.3309C207.802 51.9684 207.88 51.5935 208.088 51.2886C208.296 50.9838 208.617 50.7739 208.979 50.7052C209.342 50.6366 209.717 50.7147 210.022 50.9224C210.327 51.1302 210.537 51.4505 210.606 51.813Z" fill="#1742D0"/>
<path opacity="0.2" d="M213.657 55.5677C213.369 56.2784 211.236 57.8148 211.236 57.8148C211.236 57.8148 210.79 55.2253 211.081 54.5146C211.15 54.3446 211.252 54.1898 211.381 54.0592C211.51 53.9286 211.663 53.8247 211.833 53.7533C212.002 53.682 212.183 53.6446 212.367 53.6435C212.551 53.6423 212.733 53.6773 212.903 53.7464C213.073 53.8156 213.228 53.9175 213.358 54.0465C213.489 54.1754 213.593 54.3288 213.664 54.4979C213.736 54.6671 213.773 54.8486 213.774 55.0321C213.776 55.2157 213.741 55.3977 213.671 55.5677H213.657Z" fill="#1742D0"/>
<path opacity="0.2" d="M214.909 62.7319C214.299 63.198 211.682 63.4512 211.682 63.4512C211.682 63.4512 212.606 60.9912 213.214 60.5251C213.506 60.3008 213.876 60.2018 214.242 60.2501C214.608 60.2984 214.939 60.49 215.164 60.7826C215.388 61.0753 215.487 61.445 215.439 61.8106C215.391 62.1762 215.199 62.5076 214.906 62.7319H214.909Z" fill="#1742D0"/>
<path opacity="0.2" d="M214.636 68.3655C214.115 68.941 211.579 69.6171 211.579 69.6171C211.579 69.6171 212.071 67.0276 212.595 66.4752C212.719 66.3412 212.868 66.2331 213.034 66.1568C213.2 66.0806 213.38 66.0377 213.562 66.0308C213.745 66.0238 213.927 66.0529 214.098 66.1163C214.27 66.1797 214.427 66.2763 214.561 66.4004C214.695 66.5245 214.803 66.6738 214.879 66.8397C214.956 67.0057 214.999 67.185 215.005 67.3675C215.012 67.5499 214.983 67.732 214.92 67.9032C214.856 68.0745 214.76 68.2316 214.636 68.3655Z" fill="#1742D0"/>
<path opacity="0.2" d="M208.392 58.5025C209.034 58.9254 211.659 58.9945 211.659 58.9945C211.659 58.9945 210.568 56.6064 209.932 56.1806C209.78 56.0799 209.609 56.0102 209.429 55.9755C209.25 55.9408 209.065 55.9418 208.886 55.9784C208.707 56.015 208.537 56.0865 208.386 56.1888C208.234 56.2911 208.104 56.4223 208.004 56.5747C207.903 56.7272 207.833 56.898 207.798 57.0774C207.764 57.2568 207.765 57.4412 207.801 57.6202C207.838 57.7992 207.909 57.9693 208.012 58.1207C208.114 58.272 208.245 58.4018 208.398 58.5025H208.392Z" fill="#1742D0"/>
<path opacity="0.2" d="M208.156 65.0999C208.896 65.3128 211.42 64.5906 211.42 64.5906C211.42 64.5906 209.664 62.637 208.925 62.4241C208.57 62.3222 208.189 62.3653 207.867 62.5439C207.544 62.7225 207.305 63.022 207.203 63.3765C207.101 63.7309 207.145 64.1113 207.323 64.434C207.502 64.7566 207.801 64.9951 208.156 65.097V65.0999Z" fill="#1742D0"/>
<path opacity="0.2" d="M208.798 71.5363C209.489 71.87 212.103 71.5881 212.103 71.5881C212.103 71.5881 210.701 69.3669 210.01 69.0331C209.677 68.8725 209.295 68.8504 208.946 68.9718C208.597 69.0933 208.311 69.3482 208.15 69.6805C207.99 70.0128 207.968 70.3953 208.089 70.7439C208.21 71.0925 208.465 71.3785 208.798 71.5392V71.5363Z" fill="#1742D0"/>
<path opacity="0.25" d="M210.606 51.813C210.75 52.5668 209.794 55.0153 209.794 55.0153C209.794 55.0153 208.012 53.0847 207.871 52.3309C207.802 51.9684 207.88 51.5935 208.088 51.2886C208.296 50.9838 208.617 50.7739 208.979 50.7052C209.342 50.6366 209.717 50.7147 210.022 50.9224C210.327 51.1302 210.537 51.4505 210.606 51.813Z" fill="black"/>
<path opacity="0.25" d="M213.657 55.5677C213.369 56.2784 211.236 57.8148 211.236 57.8148C211.236 57.8148 210.79 55.2253 211.081 54.5146C211.15 54.3446 211.252 54.1898 211.381 54.0592C211.51 53.9286 211.663 53.8247 211.833 53.7533C212.002 53.682 212.183 53.6446 212.367 53.6435C212.551 53.6423 212.733 53.6773 212.903 53.7464C213.073 53.8156 213.228 53.9175 213.358 54.0465C213.489 54.1754 213.593 54.3288 213.664 54.4979C213.736 54.6671 213.773 54.8486 213.774 55.0321C213.776 55.2157 213.741 55.3977 213.671 55.5677H213.657Z" fill="black"/>
<path opacity="0.25" d="M214.909 62.7319C214.299 63.198 211.682 63.4512 211.682 63.4512C211.682 63.4512 212.606 60.9912 213.214 60.5251C213.506 60.3008 213.876 60.2018 214.242 60.2501C214.608 60.2984 214.939 60.49 215.164 60.7826C215.388 61.0753 215.487 61.445 215.439 61.8106C215.391 62.1762 215.199 62.5076 214.906 62.7319H214.909Z" fill="black"/>
<path opacity="0.25" d="M214.636 68.3655C214.115 68.941 211.579 69.6171 211.579 69.6171C211.579 69.6171 212.071 67.0276 212.595 66.4752C212.719 66.3412 212.868 66.2331 213.034 66.1568C213.2 66.0806 213.38 66.0377 213.562 66.0308C213.745 66.0238 213.927 66.0529 214.098 66.1163C214.27 66.1797 214.427 66.2763 214.561 66.4004C214.695 66.5245 214.803 66.6738 214.879 66.8397C214.956 67.0057 214.999 67.185 215.005 67.3675C215.012 67.5499 214.983 67.732 214.92 67.9032C214.856 68.0745 214.76 68.2316 214.636 68.3655Z" fill="black"/>
<path opacity="0.25" d="M208.392 58.5025C209.034 58.9254 211.659 58.9945 211.659 58.9945C211.659 58.9945 210.568 56.6064 209.932 56.1806C209.78 56.0799 209.609 56.0102 209.429 55.9755C209.25 55.9408 209.065 55.9418 208.886 55.9784C208.707 56.015 208.537 56.0865 208.386 56.1888C208.234 56.2911 208.104 56.4223 208.004 56.5747C207.903 56.7272 207.833 56.898 207.798 57.0774C207.764 57.2568 207.765 57.4412 207.801 57.6202C207.838 57.7992 207.909 57.9693 208.012 58.1207C208.114 58.272 208.245 58.4018 208.398 58.5025H208.392Z" fill="black"/>
<path opacity="0.25" d="M208.156 65.0999C208.896 65.3128 211.42 64.5906 211.42 64.5906C211.42 64.5906 209.664 62.637 208.925 62.4241C208.57 62.3222 208.189 62.3653 207.867 62.5439C207.544 62.7225 207.305 63.022 207.203 63.3765C207.101 63.7309 207.145 64.1113 207.323 64.434C207.502 64.7566 207.801 64.9951 208.156 65.097V65.0999Z" fill="black"/>
<path opacity="0.25" d="M208.798 71.5363C209.489 71.87 212.103 71.5881 212.103 71.5881C212.103 71.5881 210.701 69.3669 210.01 69.0331C209.677 68.8725 209.295 68.8504 208.946 68.9718C208.597 69.0933 208.311 69.3482 208.15 69.6805C207.99 70.0128 207.968 70.3953 208.089 70.7439C208.21 71.0925 208.465 71.3785 208.798 71.5392V71.5363Z" fill="black"/>
<path opacity="0.2" d="M218.873 75.7456C218.873 75.7456 215.894 69.9279 217.192 64.9877C217.75 62.919 217.622 60.7251 216.826 58.7355C216.441 57.7939 215.969 56.8895 215.419 56.0338" stroke="#535461" stroke-width="2" stroke-miterlimit="10"/>
<path opacity="0.2" d="M216.228 52.9121C216.371 53.6659 215.416 56.1144 215.416 56.1144C215.416 56.1144 213.634 54.1838 213.493 53.43C213.424 53.0675 213.502 52.6926 213.71 52.3877C213.918 52.0829 214.238 51.873 214.601 51.8044C214.964 51.7357 215.339 51.8138 215.644 52.0215C215.949 52.2293 216.159 52.5496 216.228 52.9121Z" fill="#1742D0"/>
<path opacity="0.2" d="M219.279 56.6668C218.991 57.3775 216.858 58.9139 216.858 58.9139C216.858 58.9139 216.412 56.3244 216.703 55.6137C216.842 55.2704 217.113 54.9965 217.454 54.8524C217.796 54.7084 218.181 54.7059 218.525 54.8455C218.868 54.9852 219.142 55.2555 219.286 55.5971C219.43 55.9386 219.433 56.3234 219.293 56.6668H219.279Z" fill="#1742D0"/>
<path opacity="0.2" d="M220.531 63.831C219.921 64.2972 217.304 64.5503 217.304 64.5503C217.304 64.5503 218.228 62.0903 218.835 61.6242C219.128 61.3999 219.498 61.301 219.864 61.3493C220.23 61.3976 220.561 61.5891 220.786 61.8817C221.01 62.1744 221.109 62.5441 221.061 62.9097C221.012 63.2753 220.821 63.6067 220.528 63.831H220.531Z" fill="#1742D0"/>
<path opacity="0.2" d="M220.257 69.4646C219.736 70.0401 217.201 70.7162 217.201 70.7162C217.201 70.7162 217.693 68.1267 218.217 67.5743C218.467 67.3038 218.815 67.1439 219.184 67.1299C219.553 67.1159 219.912 67.2488 220.183 67.4995C220.453 67.7502 220.613 68.098 220.627 68.4666C220.641 68.8351 220.508 69.1941 220.257 69.4646Z" fill="#1742D0"/>
<path opacity="0.2" d="M214.014 59.6016C214.656 60.0245 217.281 60.0936 217.281 60.0936C217.281 60.0936 216.19 57.7055 215.554 57.2797C215.401 57.179 215.231 57.1093 215.051 57.0746C214.872 57.0399 214.687 57.0409 214.508 57.0775C214.329 57.1141 214.159 57.1856 214.007 57.2879C213.856 57.3903 213.726 57.5214 213.625 57.6739C213.525 57.8263 213.455 57.9971 213.42 58.1765C213.385 58.3559 213.386 58.5403 213.423 58.7194C213.46 58.8984 213.531 59.0684 213.634 59.2198C213.736 59.3711 213.867 59.5009 214.02 59.6016H214.014Z" fill="#1742D0"/>
<path opacity="0.2" d="M213.778 66.1961C214.518 66.409 217.042 65.6868 217.042 65.6868C217.042 65.6868 215.286 63.7332 214.546 63.5203C214.192 63.4184 213.811 63.4615 213.488 63.6401C213.166 63.8187 212.927 64.1182 212.825 64.4726C212.723 64.8271 212.766 65.2075 212.945 65.5302C213.124 65.8528 213.423 66.0913 213.778 66.1932V66.1961Z" fill="#1742D0"/>
<path opacity="0.2" d="M214.428 72.6353C215.119 72.969 217.733 72.6871 217.733 72.6871C217.733 72.6871 216.331 70.4659 215.64 70.1321C215.476 70.0526 215.297 70.0062 215.114 69.9957C214.932 69.9852 214.749 70.0107 214.576 70.0708C214.404 70.131 214.245 70.2245 214.108 70.3461C213.972 70.4677 213.86 70.6149 213.781 70.7795C213.701 70.944 213.655 71.1226 213.644 71.3051C213.634 71.4876 213.659 71.6703 213.719 71.8429C213.78 72.0155 213.873 72.1745 213.995 72.311C214.116 72.4475 214.264 72.5586 214.428 72.6382V72.6353Z" fill="#1742D0"/>
<path opacity="0.1" d="M230.767 22.5747L230.26 22.6696C230.354 22.6517 230.437 22.5972 230.491 22.5182C230.545 22.4391 230.565 22.342 230.547 22.2481C230.529 22.1543 230.474 22.0714 230.395 22.0177C230.316 21.964 230.219 21.9439 230.125 21.9618L226.023 22.7358C225.929 22.7537 225.846 22.8082 225.793 22.8873C225.739 22.9663 225.719 23.0635 225.737 23.1573C225.755 23.2512 225.809 23.3341 225.888 23.3878C225.967 23.4415 226.065 23.4615 226.158 23.4436L226.665 23.3487C226.619 23.3575 226.574 23.3755 226.535 23.4015C226.495 23.4275 226.461 23.461 226.435 23.5001C226.408 23.5393 226.389 23.5833 226.38 23.6296C226.37 23.6759 226.37 23.7237 226.379 23.7702C226.388 23.8167 226.406 23.8609 226.432 23.9005C226.458 23.94 226.491 23.974 226.53 24.0006C226.569 24.0272 226.613 24.0458 226.66 24.0554C226.706 24.065 226.754 24.0653 226.8 24.0565L226.092 24.1917C225.998 24.2096 225.915 24.2641 225.862 24.3432C225.808 24.4222 225.788 24.5193 225.806 24.6132C225.824 24.7071 225.878 24.79 225.957 24.8436C226.036 24.8973 226.134 24.9174 226.228 24.8995L230.329 24.1255C230.376 24.1166 230.42 24.0987 230.46 24.0727C230.499 24.0467 230.533 24.0132 230.56 23.974C230.587 23.9349 230.605 23.8909 230.615 23.8446C230.624 23.7982 230.625 23.7505 230.616 23.704C230.607 23.6575 230.589 23.6133 230.563 23.5737C230.537 23.5342 230.504 23.5001 230.464 23.4736C230.425 23.447 230.381 23.4284 230.335 23.4188C230.288 23.4092 230.241 23.4088 230.194 23.4177L230.902 23.2825C230.949 23.2736 230.993 23.2557 231.033 23.2297C231.072 23.2037 231.106 23.1702 231.133 23.131C231.159 23.0919 231.178 23.0479 231.188 23.0016C231.197 22.9552 231.198 22.9075 231.189 22.861C231.18 22.8145 231.162 22.7702 231.136 22.7307C231.11 22.6912 231.076 22.6571 231.037 22.6305C230.998 22.604 230.954 22.5853 230.908 22.5758C230.861 22.5662 230.814 22.5658 230.767 22.5747Z" fill="#252223"/>
<path opacity="0.1" d="M223.338 29.6152L222.831 29.7102C222.877 29.7013 222.922 29.6833 222.961 29.6574C223.001 29.6314 223.035 29.5978 223.061 29.5587C223.088 29.5196 223.107 29.4756 223.116 29.4292C223.126 29.3829 223.126 29.3351 223.117 29.2887C223.108 29.2422 223.09 29.1979 223.064 29.1584C223.038 29.1188 223.005 29.0848 222.966 29.0582C222.927 29.0316 222.883 29.013 222.836 29.0034C222.79 28.9939 222.742 28.9935 222.696 29.0024L218.585 29.7763C218.491 29.7943 218.408 29.8488 218.355 29.9278C218.301 30.0069 218.281 30.104 218.299 30.1979C218.317 30.2917 218.371 30.3746 218.45 30.4283C218.529 30.482 218.626 30.5021 218.72 30.4841L219.227 30.3892C219.18 30.3981 219.136 30.416 219.097 30.442C219.057 30.468 219.023 30.5015 218.996 30.5407C218.97 30.5798 218.951 30.6238 218.942 30.6701C218.932 30.7165 218.932 30.7642 218.941 30.8107C218.949 30.8572 218.967 30.9014 218.993 30.941C219.019 30.9805 219.053 31.0146 219.092 31.0411C219.131 31.0677 219.175 31.0863 219.222 31.0959C219.268 31.1055 219.316 31.1059 219.362 31.097L218.654 31.2322C218.608 31.2411 218.563 31.259 218.524 31.285C218.484 31.311 218.45 31.3445 218.424 31.3837C218.397 31.4228 218.378 31.4668 218.369 31.5132C218.359 31.5595 218.359 31.6073 218.368 31.6537C218.377 31.7002 218.395 31.7445 218.421 31.784C218.447 31.8236 218.48 31.8576 218.519 31.8842C218.558 31.9108 218.602 31.9294 218.649 31.9389C218.695 31.9485 218.743 31.9489 218.789 31.94L222.903 31.166C222.949 31.1572 222.994 31.1392 223.033 31.1132C223.073 31.0872 223.107 31.0537 223.133 31.0146C223.16 30.9754 223.179 30.9314 223.188 30.8851C223.198 30.8388 223.198 30.791 223.189 30.7445C223.18 30.6981 223.162 30.6538 223.136 30.6142C223.11 30.5747 223.077 30.5407 223.038 30.5141C222.999 30.4875 222.955 30.4689 222.908 30.4593C222.862 30.4497 222.814 30.4494 222.768 30.4582L223.476 30.323C223.522 30.3141 223.566 30.2962 223.606 30.2702C223.646 30.2442 223.68 30.2107 223.706 30.1716C223.733 30.1324 223.751 30.0884 223.761 30.0421C223.771 29.9957 223.771 29.948 223.762 29.9015C223.753 29.855 223.735 29.8108 223.709 29.7712C223.683 29.7317 223.65 29.6976 223.611 29.6711C223.571 29.6445 223.527 29.6259 223.481 29.6163C223.435 29.6067 223.387 29.6063 223.34 29.6152H223.338Z" fill="#252223"/>
<path opacity="0.1" d="M265.298 20.6211L264.791 20.716C264.838 20.7071 264.882 20.6892 264.922 20.6632C264.961 20.6372 264.995 20.6037 265.022 20.5646C265.048 20.5254 265.067 20.4814 265.077 20.4351C265.086 20.3888 265.087 20.341 265.078 20.2945C265.069 20.248 265.051 20.2038 265.025 20.1642C264.999 20.1247 264.965 20.0907 264.926 20.0641C264.887 20.0375 264.843 20.0189 264.797 20.0093C264.75 19.9997 264.703 19.9994 264.656 20.0082L260.557 20.7908C260.463 20.8088 260.38 20.8633 260.326 20.9423C260.273 21.0213 260.253 21.1185 260.271 21.2123C260.289 21.3062 260.343 21.3891 260.422 21.4428C260.501 21.4965 260.598 21.5166 260.692 21.4986L261.199 21.4037C261.152 21.4126 261.108 21.4305 261.069 21.4565C261.029 21.4825 260.995 21.516 260.968 21.5551C260.942 21.5943 260.923 21.6383 260.914 21.6846C260.904 21.7309 260.904 21.7787 260.912 21.8252C260.921 21.8717 260.939 21.9159 260.965 21.9555C260.991 21.995 261.025 22.029 261.064 22.0556C261.103 22.0822 261.147 22.1008 261.194 22.1104C261.24 22.12 261.288 22.1204 261.334 22.1115L260.612 22.2294C260.518 22.2474 260.435 22.3019 260.381 22.3809C260.327 22.46 260.307 22.5571 260.325 22.6509C260.343 22.7448 260.398 22.8277 260.477 22.8814C260.556 22.9351 260.653 22.9552 260.747 22.9372L264.849 22.1633C264.895 22.1544 264.94 22.1364 264.979 22.1104C265.019 22.0845 265.053 22.0509 265.079 22.0118C265.106 21.9727 265.125 21.9287 265.134 21.8823C265.144 21.836 265.144 21.7882 265.135 21.7418C265.126 21.6953 265.108 21.651 265.082 21.6115C265.056 21.5719 265.023 21.5379 264.984 21.5113C264.945 21.4847 264.901 21.4661 264.854 21.4565C264.808 21.447 264.76 21.4466 264.714 21.4555L265.422 21.3202C265.468 21.3114 265.513 21.2934 265.552 21.2674C265.592 21.2414 265.626 21.2079 265.652 21.1688C265.679 21.1296 265.697 21.0856 265.707 21.0393C265.717 20.993 265.717 20.9452 265.708 20.8987C265.699 20.8523 265.681 20.808 265.655 20.7684C265.629 20.7289 265.596 20.6949 265.557 20.6683C265.517 20.6417 265.473 20.6231 265.427 20.6135C265.381 20.6039 265.333 20.6036 265.286 20.6124L265.298 20.6211Z" fill="#252223"/>
<path opacity="0.3" d="M211.217 33.3329C213.29 32.9414 214.653 30.9444 214.261 28.8724C213.869 26.8004 211.871 25.4381 209.799 25.8296C207.726 26.2211 206.363 28.2181 206.754 30.2901C207.146 32.3621 209.144 33.7244 211.217 33.3329Z" fill="#1742D0"/>
<path opacity="0.05" d="M233.3 49.3298C233.3 49.3298 235.22 51.0245 236.115 52.5293C237.011 54.0341 236.726 54.5433 236.726 54.5433" fill="black"/>
</g>
</g>
<defs>
<linearGradient id="paint0_linear" x1="245.074" y1="68.2494" x2="238.991" y2="36.0411" gradientUnits="userSpaceOnUse">
<stop stop-color="#808080" stop-opacity="0.25"/>
<stop offset="0.54" stop-color="#808080" stop-opacity="0.12"/>
<stop offset="1" stop-color="#808080" stop-opacity="0.1"/>
</linearGradient>
<linearGradient id="paint1_linear" x1="17283.2" y1="8934.96" x2="17283.2" y2="6611.49" gradientUnits="userSpaceOnUse">
<stop stop-color="#808080" stop-opacity="0.25"/>
<stop offset="0.54" stop-color="#808080" stop-opacity="0.12"/>
<stop offset="1" stop-color="#808080" stop-opacity="0.1"/>
</linearGradient>
<clipPath id="clip0">
<rect width="299" height="163" fill="white"/>
</clipPath>
</defs>
</svg>
