<svg width="409" height="66" viewBox="0 0 409 66" fill="none" xmlns="http://www.w3.org/2000/svg">
<path d="M1 31.9928C58.4931 68.6134 120.759 1.41174 167.108 9.85485C225.044 20.4087 240.291 45.2413 287.554 39.0331C334.818 32.825 375.983 -0.0781182 408 9.85485" stroke="#D8D8D8" stroke-opacity="0.2"/>
<path d="M1 24.9928C58.4931 61.6134 120.759 -5.58826 167.108 2.85485C225.044 13.4087 240.291 38.2413 287.554 32.0331C334.818 25.825 375.983 -7.07812 408 2.85485" stroke="#D8D8D8" stroke-opacity="0.2"/>
<path d="M1 38.9928C58.4931 75.6134 120.759 8.41174 167.108 16.8548C225.044 27.4087 240.291 52.2413 287.554 46.0331C334.818 39.825 375.983 6.92188 408 16.8548" stroke="#D8D8D8" stroke-opacity="0.2"/>
<path d="M1 46.9928C58.4931 83.6134 120.759 16.4117 167.108 24.8548C225.044 35.4087 240.291 60.2413 287.554 54.0331C334.818 47.825 375.983 14.9219 408 24.8548" stroke="#D8D8D8" stroke-opacity="0.2"/>
<path d="M1 53.9928C58.4931 90.6134 120.759 23.4117 167.108 31.8548C225.044 42.4087 240.291 67.2413 287.554 61.0331C334.818 54.825 375.983 21.9219 408 31.8548" stroke="#D8D8D8" stroke-opacity="0.2"/>
</svg>
